What's the difference between Cubist and RuleFit? • rules
…
library(dplyr)
library(purrr)
library(rlang)

rule_4_filter <- 
  cb_res %>% 
  dplyr::filter(rule_num == 4) %>% 
  pluck("rule") %>%   # <- character string
  parse_expr() %>%    # <- R expression
  eval_tidy(penguins) # <- logical vector

penguins %>% 
  dplyr::slice(which(rule_4_filter))
#> # A tibble: 23 × 7
#>    species island    bill_length_mm bill_depth_mm flipper_length_mm
#>    <fct>   <fct>              <dbl>         <dbl>             <int>
#>  1 Adelie  Dream               41.1          18.1               205
#>  2 Adelie  Dream               40.8          18.9               208
#>  3 Adelie  Biscoe              41            20                 203
#>  4 Adelie  Torgersen           44.1          18                 210
#>  5 Gentoo  Biscoe              59.6          17                 230
#>  6 Gentoo  Biscoe              44.4          17.3               219
#>  7 Gentoo  Biscoe              49.8          16.8               230
#>  8 Gentoo  Biscoe              50.8          17.3               228
#>  9 Gentoo  Biscoe              52.1          17                 230
#> 10 Gentoo  Biscoe              52.2          17.1               228
#> # ℹ 13 more rows
#> # ℹ 2 more variables: body_mass_g <int>, sex <fct>
…
rule_fit_fit
#> parsnip model object
#> 
#> An eXtreme RuleFit model of 112 rules.
#> 
#> Original Formula:
#> 
#> body_mass_g ~ species + island + bill_length_mm + bill_depth_mm + [truncated]

To get the rules and their associated coefficients, the
tidy() method can be used again:

rf_res <- tidy(rule_fit_fit, penalty = 0.01)
rf_res
#> # A tibble: 110 × 3
#>    rule_id           rule                                         estimate
#>    <chr>             <chr>                                           <dbl>
#>  1 (Intercept)       ( TRUE )                                      5753.  
#>  2 bill_depth_mm     ( bill_depth_mm )                              -15.9 
#>  3 bill_length_mm    ( bill_length_mm )                               1.10
#>  4 flipper_length_mm ( flipper_length_mm )                           -7.67
#>  5 islandDream       ( island == 'Dream' )                          -29.2 
#>  6 islandTorgersen   ( island == 'Torgersen' )                      -16.8 
#>  7 r0_2              ( species == 'Gentoo' )                        472.  
#>  8 r0_3              ( sex != 'male' ) & ( species != 'Gentoo' )    -78.8 
#>  9 r1_2              ( flipper_length_mm >= 211.5 )                 219.  
#> 10 r1_3              ( flipper_length_mm <  194.5 ) & ( flipper_…  -142.  
#> # ℹ 100 more rows
…
which can be simplified to have fewer conditions:

( bill_depth_mm >= 14.1499996 ) & 
( flipper_length_mm <  227 ) & 
( flipper_length_mm >= 197.5 ) & 

Also, the tidy() function can extract the same
information but use the original predictors as the unit:

rf_variable_res <- tidy(rule_fit_fit, unit = "columns", penalty = 0.01)
rf_variable_res
#> # A tibble: 452 × 3
#>    rule_id term              estimate
#>    <chr>   <chr>                <dbl>
#>  1 r0_3    species             -78.8 
#>  2 r0_2    species             472.  
#>  3 r0_3    sex                 -78.8 
#>  4 r1_3    flipper_length_mm  -142.  
#>  5 r1_2    flipper_length_mm   219.  
#>  6 r1_3    flipper_length_mm  -142.  
#>  7 r2_7    flipper_length_mm     9.04
#>  8 r2_7    sex                   9.04
#>  9 r2_7    species               9.04
#> 10 r3_3    flipper_length_mm  -101.  
#> # ℹ 442 more rows
…
