Turn regression rule models into tidy tibbles — tidy.cubist • rules
…
# ------------------------------------------------------------------------------

cb_fit <-
  cubist_rules(committees = 10) %>%
  set_engine("Cubist") %>%
  fit(Sale_Price ~ Neighborhood + Longitude + Latitude + Gr_Liv_Area + Central_Air,
      data = ames)

cb_res <- tidy(cb_fit)
cb_res

## # A tibble: 157 × 5
##    committee rule_num rule                               estimate    statistic  
##        <int>    <int> <chr>                              <list>      <list>     
##  1         1        1 ( Central_Air == 'N' ) & ( Gr_Liv… <tibble [4… <tibble [1…
##  2         1        2 ( Gr_Liv_Area <= 3.0326188 ) & ( … <tibble [4… <tibble [1…
##  3         1        3 ( Neighborhood  %in% c( 'Old_Town… <tibble [3… <tibble [1…
##  4         1        4 ( Neighborhood  %in% c( 'Old_Town… <tibble [4… <tibble [1…
##  5         1        5 ( Central_Air == 'N' ) & ( Gr_Liv… <tibble [4… <tibble [1…
##  6         1        6 ( Longitude <= -93.652023 ) & ( N… <tibble [4… <tibble [1…
##  7         1        7 ( Gr_Liv_Area > 3.2284005 ) & ( N… <tibble [4… <tibble [1…
##  8         1        8 ( Neighborhood  %in% c( 'North_Am… <tibble [4… <tibble [1…
##  9         1        9 ( Latitude <= 42.009399 ) & ( Nei… <tibble [3… <tibble [1…
## 10         1       10 ( Neighborhood  %in% c( 'College_… <tibble [4… <tibble [1…
## # … with 147 more rows
…
xrf_rule_res <- tidy(xrf_reg_fit)
xrf_rule_res$rule[nrow(xrf_rule_res)] %>% rlang::parse_expr()

## (Gr_Liv_Area < 3.30210185) & (Gr_Liv_Area < 3.38872266) & (Gr_Liv_Area >= 
##     2.94571471) & (Gr_Liv_Area >= 3.24870872) & (Latitude < 42.0271072) & 
##     (Neighborhood_Old_Town >= -9.53674316e-07)

xrf_col_res <- tidy(xrf_reg_fit, unit = "columns")
xrf_col_res

## # A tibble: 149 × 3
##    rule_id term           estimate
##    <chr>   <chr>             <dbl>
##  1 r0_1    Gr_Liv_Area   -1.27e- 2
##  2 r2_4    Gr_Liv_Area   -3.92e-10
##  3 r2_2    Gr_Liv_Area    7.59e- 3
##  4 r2_4    Central_Air_Y -3.92e-10
##  5 r3_5    Longitude      1.06e- 1
##  6 r3_6    Longitude      2.65e- 2
##  7 r3_5    Latitude       1.06e- 1
##  8 r3_6    Latitude       2.65e- 2
##  9 r3_5    Longitude      1.06e- 1
## 10 r3_6    Longitude      2.65e- 2
## # … with 139 more rows
…
