…
    ames <- ames |>
      mutate(Sale_Price = log10(Sale_Price)) |>
      select(Sale_Price, Longitude, Latitude, Central_Air)

    cb_fit <-
      cubist_rules(committees = 10) |>
      set_engine("Cubist") |>
      fit(Sale_Price ~ ., data = ames)

    cb_res <- tidy(cb_fit)

    cb_res

    ## # A tibble: 223 x 5
    ##    committee rule_num rule                                    estimate statistic
    ##        <int>    <int> <chr>                                   <list>   <list>
    ##  1         1        1 ( Central_Air == 'N' ) & ( Latitude <=~ <tibble> <tibble>
    ##  2         1        2 ( Latitude <= 41.992611 ) & ( Latitude~ <tibble> <tibble>
    ##  3         1        3 ( Central_Air == 'N' ) & ( Latitude > ~ <tibble> <tibble>
    ##  4         1        4 ( Latitude <= 42.026997 ) & ( Longitud~ <tibble> <tibble>
    ##  5         1        5 ( Longitude > -93.63002 ) & ( Latitude~ <tibble> <tibble>
    ##  6         1        6 ( Latitude <= 42.035858 ) & ( Longitud~ <tibble> <tibble>
    ##  7         1        7 ( Latitude <= 42.024029 ) & ( Latitude~ <tibble> <tibble>
    ##  8         1        8 ( Longitude > -93.602348 ) & ( Latitud~ <tibble> <tibble>
    ##  9         1        9 ( Latitude <= 41.991756 ) & ( Longitud~ <tibble> <tibble>
    ## 10         1       10 ( Latitude > 42.041813 ) & ( Longitude~ <tibble> <tibble>
    ## # i 213 more rows
…
Note that we can get the data for this rule by using
[`rlang::parse_expr()`](https://rlang.r-lib.org/reference/parse_expr.html)
with it:

    rule_1_expr <- parse_expr(cb_res$rule[1])
    rule_1_expr

    ## (Central_Air == "N") & (Latitude <= 42.026997) & (Longitude >
    ##     -93.639572)

then use it to get the data back:

    filter(ames, !!rule_1_expr)

    ## # A tibble: 38 x 4
    ##    Sale_Price Longitude Latitude Central_Air
    ##         <dbl>     <dbl>    <dbl> <fct>
    ##  1       5.04     -93.6     42.0 N
    ##  2       4.74     -93.6     42.0 N
    ##  3       4.75     -93.6     42.0 N
    ##  4       4.54     -93.6     42.0 N
    ##  5       4.64     -93.6     42.0 N
    ##  6       5.22     -93.6     42.0 N
    ##  7       4.80     -93.6     42.0 N
    ##  8       4.99     -93.6     42.0 N
    ##  9       5.09     -93.6     42.0 N
    ## 10       4.89     -93.6     42.0 N
    ## # i 28 more rows
…
    data(penguins, package = "modeldata")

    penguins <- drop_na(penguins)

First, let’s fit a boosted rule-based model and tidy:

    rule_model <-
      C5_rules(trees = 3) |>
      fit(island ~ ., data = penguins)

    rule_info <- tidy(rule_model)

    rule_info

    ## # A tibble: 25 x 4
    ##    trial rule_num rule                                                 statistic
    ##    <int>    <int> <chr>                                                <list>
    ##  1     1        1 ( bill_length_mm > 37.5 )                            <tibble>
    ##  2     1        2 ( species == 'Chinstrap' )                           <tibble>
    ##  3     1        3 ( body_mass_g > 3200 ) & ( body_mass_g < 3700 ) & (~ <tibble>
    ##  4     1        4 ( flipper_length_mm < 193 )                          <tibble>
    ##  5     1        5 ( species == 'Adelie' ) & ( bill_length_mm > 38.299~ <tibble>
    ##  6     1        6 ( bill_length_mm < 40.799999 ) & ( bill_depth_mm > ~ <tibble>
    ##  7     1        7 ( species == 'Adelie' ) & ( bill_length_mm > 41.599~ <tibble>
    ##  8     1        8 ( species == 'Adelie' ) & ( bill_depth_mm > 18.9 ) ~ <tibble>
    ##  9     2        1 ( species == 'Gentoo' )                              <tibble>
    ## 10     2        2 ( body_mass_g > 3700 ) & ( sex == 'female' )         <tibble>
    ## # i 15 more rows
…
Let’s fit a model and tidy:

    tree_model <-
      boost_tree(trees = 3) |>
      set_engine("C5.0") |>
      set_mode("classification") |>
      fit(island ~ ., data = penguins)

    tree_info <- tidy(tree_model)

    tree_info

    ## # A tibble: 34 x 4
    ##    trial  node rule                                                    statistic
    ##    <int> <int> <chr>                                                   <list>
    ##  1     1     1 "( species %in% c(\"Adelie\") ) & ( sex == \"female\" ~ <tibble>
    ##  2     1     2 "( species %in% c(\"Adelie\") ) & ( sex == \"female\" ~ <tibble>
    ##  3     1     3 "( species %in% c(\"Adelie\") ) & ( sex == \"female\" ~ <tibble>
    ##  4     1     4 "( species %in% c(\"Adelie\") ) & ( sex == \"female\" ~ <tibble>
    ##  5     1     5 "( species %in% c(\"Adelie\") ) & ( sex == \"female\" ~ <tibble>
    ##  6     1     6 "( species %in% c(\"Adelie\") ) & ( sex == \"female\" ~ <tibble>
    ##  7     1     7 "( species %in% c(\"Adelie\") ) & ( sex == \"female\" ~ <tibble>
    ##  8     1     8 "( species %in% c(\"Adelie\") ) & ( sex == \"male\" ) ~ <tibble>
    ##  9     1     9 "( species %in% c(\"Adelie\") ) & ( sex == \"male\" ) ~ <tibble>
    ## 10     1    10 "( species %in% c(\"Adelie\") ) & ( sex == \"male\" ) ~ <tibble>
    ## # i 24 more rows
…
