Turn rule models into tidy tibbles — tidy.C5.0 • rules
…
# ------------------------------------------------------------------------------

cb_fit <-
  cubist_rules(committees = 10) %>%
  set_engine("Cubist") %>%
  fit(Sale_Price ~ Neighborhood + Longitude + Latitude + Gr_Liv_Area + Central_Air,
      data = ames)

cb_res <- tidy(cb_fit)
cb_res

## # A tibble: 157 x 5
##    committee rule_num rule                                     estimate statis~1
##        <int>    <int> <chr>                                    <list>   <list>  
##  1         1        1 ( Central_Air == 'N' ) & ( Gr_Liv_Area ~ <tibble> <tibble>
##  2         1        2 ( Gr_Liv_Area <= 3.0326188 ) & ( Neighb~ <tibble> <tibble>
##  3         1        3 ( Neighborhood  %in% c( 'Old_Town','Edw~ <tibble> <tibble>
##  4         1        4 ( Neighborhood  %in% c( 'Old_Town','Edw~ <tibble> <tibble>
##  5         1        5 ( Central_Air == 'N' ) & ( Gr_Liv_Area ~ <tibble> <tibble>
##  6         1        6 ( Longitude <= -93.652023 ) & ( Neighbo~ <tibble> <tibble>
##  7         1        7 ( Gr_Liv_Area > 3.2284005 ) & ( Neighbo~ <tibble> <tibble>
##  8         1        8 ( Neighborhood  %in% c( 'North_Ames','G~ <tibble> <tibble>
##  9         1        9 ( Latitude <= 42.009399 ) & ( Neighborh~ <tibble> <tibble>
## 10         1       10 ( Neighborhood  %in% c( 'College_Creek'~ <tibble> <tibble>
## # ... with 147 more rows, and abbreviated variable name 1: statistic
…
